date/time         : 2015-05-27, 10:31:38, 212ms
computer name     : LUA-PC
user name         : SISTEMA <admin>
registered owner  : Lua
operating system  : Windows 7 Service Pack 1 build 7601
system language   : Portuguese
system up time    : 2 hours 39 minutes
program up time   : 5 seconds
processors        : 2x Intel(R) Celeron(R) CPU B830 @ 1.80GHz
physical memory   : 386/1858 MB (free/total)
free disk space   : (C:) 36,84 GB (D:) 45,62 GB
display mode      : 1024x768, 32 bit
process id        : $1678
allocated memory  : 10,29 MB
command line      : D:/wamp/www/myerp/nfephp/sendmail/sendmail.exe -oi -f "nfe@mwdesenvolvimento.com.br" -t
executable        : sendmail.exe
exec. date/time   : 2011-06-18 01:10
compiled with     : Delphi 2006/07
madExcept version : 3.0l
callstack crc     : $1d5da2f6, $426ead6b, $426ead6b
exception number  : 1
exception class   : EIdSocketError
exception message : Socket Error # 10060 Connection timed out.

main thread ($11b8):
00435e23 +0073 sendmail.exe IdStack                         706  +42 TIdStack.RaiseSocketError
00435daa +0016 sendmail.exe IdStack                         660   +1 TIdStack.RaiseLastSocketError
0045f2e8 +0100 sendmail.exe IdSSLOpenSSLHeaders           16464  +22 EIdOpenSSLAPISSLError.RaiseExceptionCode
0045f1d9 +0021 sendmail.exe IdSSLOpenSSLHeaders           16433   +1 EIdOpenSSLAPISSLError.RaiseException
00466686 +012a sendmail.exe IdSSLOpenSSL                   2668  +17 TIdSSLSocket.Connect
00465a1c +00dc sendmail.exe IdSSLOpenSSL                   2262  +21 TIdSSLIOHandlerSocketOpenSSL.OpenEncodedConnection
004655f6 +0062 sendmail.exe IdSSLOpenSSL                   2106   +9 TIdSSLIOHandlerSocketOpenSSL.StartSSL
00465587 +006b sendmail.exe IdSSLOpenSSL                   2093  +15 TIdSSLIOHandlerSocketOpenSSL.ConnectClient
00444a9f +0063 sendmail.exe IdIOHandlerSocket               335  +13 TIdIOHandlerSocket.Open
00465637 +0007 sendmail.exe IdSSLOpenSSL                   2122   +1 TIdSSLIOHandlerSocketOpenSSL.Open
0044157d +0235 sendmail.exe IdTCPClient                     318  +53 TIdTCPClientCustom.Connect
00445cc8 +00a4 sendmail.exe IdExplicitTLSClientServerBase   257  +23 TIdExplicitTLSClient.Connect
0045ab7b +0017 sendmail.exe IdSMTP                          373   +2 TIdSMTP.Connect
004b5f14 +1060 sendmail.exe sendmail                        808 +326 initialization
775eee1a +0010 kernel32.dll                                          BaseThreadInitThunk

thread $71c:
779e6a22 +0a ntdll.dll     NtWaitForWorkViaWorkerFactory
775eee1a +10 kernel32.dll  BaseThreadInitThunk

thread $1748:
779e69f2 +0a ntdll.dll     NtWaitForMultipleObjects
775eee1a +10 kernel32.dll  BaseThreadInitThunk

stack dump:
0012fba8  28 5e 43 00 de fa ed 0e - 01 00 00 00 07 00 00 00  (^C.............
0012fbb8  bc fb 12 00 28 5e 43 00 - 38 cc 8b 00 ec 28 43 00  ....(^C.8....(C.
0012fbc8  c0 3f 46 00 f0 1d 8d 00 - f8 fb 12 00 d8 fb 12 00  .?F.............
0012fbd8  0c fc 12 00 c8 4b 40 00 - f8 fb 12 00 05 00 00 00  .....K@.........
0012fbe8  00 00 00 00 00 00 00 00 - 4c 27 00 00 20 50 8b 00  ........L'...P..
0012fbf8  04 fc 12 00 ad 5d 43 00 - 20 50 8b 00 ec fc 12 00  .....]C..P......
0012fc08  ed f2 45 00 10 fd 12 00 - c8 4b 40 00 ec fc 12 00  ..E......K@.....
0012fc18  78 fa 4d 02 ff ff ff ff - c0 3f 46 00 00 00 00 00  x.M......?F.....
0012fc28  00 00 00 00 00 00 00 00 - 00 00 00 00 00 00 00 00  ................
0012fc38  a3 b9 6f 6e e8 af e9 01 - e3 4d 0e 93 6f e6 00 12  ..on.....M..o...
0012fc48  08 b4 e9 01 20 11 00 00 - 78 fa 4d 02 f7 ec 00 12  ........x.M.....
0012fc58  00 00 00 00 00 00 00 00 - 08 b4 e9 01 06 00 00 00  ................
0012fc68  01 00 00 00 78 ff 4d 02 - f9 27 04 11 00 f3 03 12  ....x.M..'......
0012fc78  57 4a 0e 93 38 fa 00 12 - 78 fa 4d 02 16 00 00 00  WJ..8...x.M.....
0012fc88  08 b4 e9 01 04 00 00 00 - 00 00 00 00 00 00 00 00  ................
0012fc98  78 fa 4d 02 00 00 00 00 - 78 fa 4d 02 ce 86 00 12  x.M.....x.M.....
0012fca8  78 fa 4d 02 20 11 00 00 - 21 11 00 00 ff ff ff ff  x.M.....!.......
0012fcb8  20 4e 00 00 d0 fc 12 00 - 20 11 00 00 00 00 00 00  .N..............
0012fcc8  00 00 00 00 ff ff ff ff - ad d5 01 12 20 fc 4d 02  ..............M.
0012fcd8  04 00 00 00 00 00 00 00 - ff ff ff ff 00 00 00 00  ................

disassembling:
[...]
00435e13       push    eax
00435e14       mov     ecx, [ebp-8]
00435e17       mov     dl, 1
00435e19       mov     eax, [$4352ac]
00435e1e       call    -$717 ($43570c)        ; IdStack.EIdSocketError.CreateError
00435e23     > call    -$3113c ($404cec)      ; System.@RaiseExcept
00435e28 707   xor     eax, eax
00435e2a       pop     edx
00435e2b       pop     ecx
00435e2c       pop     ecx
00435e2d       mov     fs:[eax], edx
[...]