\\User-PC\DARUMA 
TABERNA LOJA DE BEBIDAS                  
Fone: (19) 3549-2750 
Data: 31/07/2015 Hora: 18:44:44 

Data venda: 31/07/2015 
Num. venda: 011543     Ref.:0 
Cli: 00000  
END: , 


Cod. Produto             Nome do produto 
----------------------------------------
115        SUB ZERO 600ML
5,00    x 4,50       0,00  % 22,50      
392        LUCKY STRIKE
1,00    x 6,75       0,00  % 6,75       
422        DOSE 7 ERVAS
1,00    x 15,00      0,00  % 15,00      
---------------------------------------- 
             Produtos +            44,25
         Desconto(%) -              0,00
        Desconto(R$) -              0,00
               Total =             44,25
          Total Pago =             43,50
       Total Devedor =              0,75

 Parc Venc  Valor  Pago   Devedor  Forma
---------------------------------------- 
 01 31/07     44,25    43,50     0,75 DN
        Saldo devedor               0,75

         Moji Mirim, 31/07/2015         


     ------------------------------      
                                        


         **** VOLTE SEMPRE ****          










