\\User-PC\DARUMA 
TABERNA LOJA DE BEBIDAS                  
Fone: (19) 3549-2750 
Data: 31/07/2015 Hora: 18:07:07 

Data venda: 31/07/2015 
Num. venda: 011535     Ref.:0 
Cli: 00000  
END: , 


Cod. Produto             Nome do produto 
----------------------------------------
29         ORIGINAL 660ML
2,00    x 7,00       0,00  % 14,00      
113        SKOL 600 ML
4,00    x 6,50       0,00  % 26,00      
154        PORCAO SALAME 100G
1,00    x 12,00      0,00  % 12,00      
---------------------------------------- 
             Produtos +            52,00
         Desconto(%) -              0,00
        Desconto(R$) -              0,00
               Total =             52,00
          Total Pago =             52,00
       Total Devedor =              0,00

 Parc Venc  Valor  Pago   Devedor  Forma
---------------------------------------- 
 01 31/07     52,00    52,00     0,00 DN
        Saldo devedor               0,00

         Moji Mirim, 31/07/2015         


     ------------------------------      
                                        


         **** VOLTE SEMPRE ****          










