\\pc02\gc420t

N
q900
Q448,024
ZT
A806,250,2,4,1,1,N,"XOXOXOXOXOXOXO"
A806,215,2,4,1,1,N,"LALALALALALALA"
A806,40,2,4,1,1,N,"VAVAVAVAVAVAVA"
B803,180,2,2,2,5,60,B,"00000000752"

A520,250,2,4,1,1,N,"XOXOXOXOXOXOXO"
A520,215,2,4,1,1,N,"LALALALALALALA"
A520,40,2,4,1,1,N,"VAVAVAVAVAVAVA"
B517,180,2,2,2,5,60,B,"00000000752"

A250,250,2,4,1,1,N,"XOXOXOXOXOXOXO"
A250,215,2,4,1,1,N,"LALALALALALALA"
A250,40,2,4,1,1,N,"VAVAVAVAVAVAVA"
B247,180,2,2,2,5,60,B,"00000000752"
P