\\User-PC\DARUMA 
TABERNA LOJA DE BEBIDAS                  
Fone: (19) 3549-2750 
Data: 01/08/2015 Hora: 00:38:15 

Data venda: 01/08/2015 
Num. venda: 011612     Ref.:0 
Cli: 00000  
END: , 


Cod. Produto             Nome do produto 
----------------------------------------
150        SALGADINHO FAMITOS 80 G
1,00    x 3,00       0,00  % 3,00       
419        SKOL SENSE LATA
1,00    x 4,50       0,00  % 4,50       
---------------------------------------- 
             Produtos +             7,50
         Desconto(%) -              0,00
        Desconto(R$) -              0,00
               Total =              7,50
          Total Pago =              7,50
       Total Devedor =              0,00

 Parc Venc  Valor  Pago   Devedor  Forma
---------------------------------------- 
 01 01/08      7,50     7,50     0,00 DN
        Saldo devedor               0,00

         Moji Mirim, 01/08/2015         


     ------------------------------      
                                        


         **** VOLTE SEMPRE ****          










