NOTA FISCAL|1|
A|2.00|NFe35131104615918000104550010000001961000009619|
B|35|00000961|Devolução|0|55|1|196|2013-11-07|2013-11-07|15:07:26|0|3522604|1|1||2|1|3|2.00|||
C|Leao E Leao de Itapira Ltda ME|MindWare|374053100113||||1|
C02|04615918000104|
C05|Rua Duque de Caxias|128||Centro|3522604|Itapira|SP|13970520|1058|BRASIL|01938432926|
E|ABEL NISA NETO|ISENTO|||
E05|||||||||1058|BRASIL||
H|1||
I|7914700001||CANETA DO BÁTIMA|39262000||||1.0000|44.0000000000|44.00|||1.0000|44.0000000000|||||1|
M|
N|
N10c|0|101|0.00|0.00|
Q|
Q05||0.00|
S|
S05||0.00|
W|
W02|0.00|0.00|0.00|0.00|44.00|0.00|0.00||0.00|0.00|0.00|0.00|0.00|44.00|
X|0|
X03||||||
X05||
X18||||
X25a||
X25b||
Y|
Y02||44.00||44.00|