NOTA FISCAL|1|
A|2.00|NFe35130604615918000104550010000001061000003139|
B|35|00000313|Revenda de Mercadorias|0|55|1|106|2013-06-28|2013-06-28|11:14:00|1|3522604|1|1||2|1|3|2.00|||
C|Leao e Leao de Itapira|Mindware|374053100113||||1|
C02|04615918000104|
C05|Rua Duque de Caxias|128||Centro|3522604|Itapira|SP|13970510|1058|BRASIL|01938432926|
E|IBILUX INDUSTRIA DE MATERIAIS ELETRICOS LTDA - EPP ||||
E02|09111318000114|
E05|Av. Anesio Bazani|150|Distrito Industrial|Parque Progresso|3522604|Itapira|SP|13973532|1058|BRASIL|1938138800|
H|1||
I|1875||Caneta Azul|84733041||5101|Unidad|1.0000|52.0000000000|52.00||Unidad|1.0000|52.0000000000|||||1|
M|
N|
N10f|0|202|4|12.00||58.24|18.00|1.12|
Q|
Q04|07|
S|
S04|07|
H|2||
I|1881||CANETA DO BÁTIMA|84733041||5101|Unidad|1.0000|50.0000000000|50.00||Unidad|1.0000|50.0000000000|||||1|
M|
N|
N10f|0|202|4|12.00||56.00|12.00|0.72|
Q|
Q04|07|
S|
S04|07|
W|
W02|0.00|0.00|114.24|1.84|102.00|0.00|0.00|0.00|0.00|0.00|0.00|0.00|0.00|103.84|
X|9|
Y|
Y02||103.84||103.84|
Y07|106/1|2013-07-28|51.92|
Y07|106/2|2013-08-28|51.92|
Z||teste|