NOTA FISCAL|1|
A|2.00|NFe35130804615918000104550010000001391000008864|
B|35|00000886|Venda de Mercadorias com ST|0|55|1|139|2013-08-07|2013-08-07|09:35:00|1|3522604|1|1||2|1|3|2.00|||
C|Leao E Leao de Itapira Ltda ME|MindWare|374053100113||||1|
C02|04615918000104|
C05|Rua Duque de Caxias|128||Centro|3522604|Itapira|SP|13970520|1058|BRASIL|01938432926|
E|Luana Leao|ISENTO|||
E03|39223482895|
E05|Ladeira Sao Joao|126||Centro|3522604|Itapira|SP|13970330|1058|BRASIL|1938435995|
H|1||
I|08999||ALÇAPÃO C/ PORTA CADEADO 060 X 060  CANT.|76101000||5102|pca|1.0000|84.1000000000|84.10||pca|1.0000|84.1000000000|||0||1|
M|
N|
N10d|0|102|
Q|
Q04|07|
S|
S04|07|
W|
W02|0.00|0.00|0.00|0.00|84.10|0.00|0.00|0|0.00|0.00|0.00|0.00|0.00|84.10|
X|0|
X03||||||
X05||
X18||||
X25a||
X25b||
Y|
Y02||84.10|0|84.00|