NOTA FISCAL|1|
A|2.00|NFe35140104615918000104550010000001781000000000|
B|35|00000000|Revenda de Mercadorias|0|55|1|178|2014-01-15|2014-01-15|15:53:00|1|3522604|1|1||2|1|3|2.00|||
C|Leao E Leao de Itapira Ltda ME|MindWare|374053100113||||1|
C02|04615918000104|
C05|Rua Duque de Caxias|128||Centro|3522604|Itapira|SP|13970520|1058|BRASIL|01938432926|
E|NF-E EMITIDA EM AMBIENTE DE HOMOLOGACAO - SEM VALOR FISCAL||||
E02|99999999000191|
E05|Rua TESTE |50||Centro|3522604|Itapira|SP|13970000|1058|BRASIL||
H|1||
I|4931||caneta do bátima|12345678||5102|UN|5.0000|18.0000000000|90.00||UN|5.0000|18.0000000000|||||1|
M|
N|
N10d|0|102|
Q|
Q04|07|
S|
S04|07|
W|
W02|0.00|0.00|0.00|0.00|90.00|0.00|0.00||0.00|0.00|0.00|0.00|0.00|90.00|
X|0|
X03||||||
X05||
X18||||
X25a||
X25b||
Y|
Y02||90.00||90.00|