NOTA FISCAL|1|
A|2.00|NFe35130404615918000104550010000000961000001203|
B|35|00000120|Revenda de Mercadoria|0|55|1|96|2013-04-26|2013-04-26|20:08:00|1|3522604|1|1||2|1|3|2.00|||
C|Leao e Leao de Itapira|Mindware|374053100113||||1|
C02|04615918000104|
C05|Rua Duque de Caxias|128||Centro|3522604|Itapira|SP|13970510|1058|BRASIL|01938432926|
E|IBILUX INDUSTRIA DE MATERIAIS ELETRICOS LTDA - EPP ||||
E02|09111318000114|
E05|Av. Anesio Bazani|150|Distrito Industrial|Parque Progresso|3522604|Itapira|SP|13973532|1058|BRASIL|1938138800|
G|Av. Anesio Bazani|150|Distrito Industrial|Parque Progresso|3522604|Itapira|SP|
G02|09111318000114|
H|1||
I|1884||MONITOR AOC 15.6 LED E1621SWB WIDE BLACK PIANO|76101000||5102|pcs|1.0000|276.7600000000|276.76||pcs|1.0000|276.7600000000|||||1|
M|
N|
N10d|4|102|
Q|
Q04|07|
S|
S04|07|
W|
W02|0.00|0.00|0.00|0.00|276.76|0.00|0.00|0.00|0.00|0.00|0.00|0.00|0.00|276.76|
X|0|
X03||||||
X05||
X18||||
X25a||
X25b||
Y|
Y02||366.66||366.66|