NOTAFISCAL|1|
A|3.10|NFe35150804615918000104550010000002311000000066|
B|35|00000006|Venda de Mercadorias com ST|1|55|1|231|2015-08-28T15:40:00-03:00|2015-08-28T15:40:00-03:00|1|1|3522604|1|1|6|2|1|0|1|3|3.10|||
C|Leao E Leao de Itapira Ltda ME - RAZAO|Mindware|374053100113||||1|
C02|04615918000104|
C05|Rua Duque de Caixas|28||Centro|3522604|Itapira|SP|13974345|1058|BRASIL|01938632926|
E|Lucas Alves|2||||l.alves.oliveira@Hotmail.com|
E03|39806205812|
E05|Rua Duque de Caixas|28||Centro|3522604|Itapira|SP|13974345|1058|BRASIL|1938432926|
H|1||
I|1234||LOTE |84439933||5102|unidad|1.0000|70.0000000000|70.00||unidad|1.0000|70.0000000000|||||1|
M|20.66|
N|
N10d|0|102|
Q|
Q04|07|
S|
S04|07|
W|
W02|0.00|0.00|0.00|0.00|0.00|70.00|0.00|0.00||0.00|0.00|0.00|0.00|0.00|70.00|20.66|
X|9|
Y|
Y02|231|70.00||70.00|