NOTA FISCAL|1|
A|2.00|NFe35140104615918000104550010000001851000000005|
B|35|00000000|Devolução de Mercadoria|0|55|1|185|2014-01-17|2014-01-17|09:46:00|1|3522604|1|1||2|1|3|2.00|||
C|Leao E Leao de Itapira Ltda ME|MindWare|374053100113||||1|
C02|04615918000104|
C05|Rua Duque de Caxias|128||Centro|3522604|Itapira|SP|13970520|1058|BRASIL|01938432926|
E|NF-E EMITIDA EM AMBIENTE DE HOMOLOGACAO - SEM VALOR FISCAL||||
E02|99999999000191|
E05|Rua TESTE |50||Centro|3522604|Itapira|SP|13970000|1058|BRASIL||
G|AV WALDYR BEIRA |1000||FIGUEIRA|3501905|Amparo|SP|
G02|43461789000190|
H|1||
I|4931||caneta do bátima|12345678||1411|UN|4.0000|13.5000000000|54.00||UN|4.0000|13.5000000000|||||1|
M|
N|
N10d|0|102|
Q|
Q04|07|
S|
S04|07|
H|2||
I|4931||caneta do bátima|12345678||5102|UN|3.0000|15.0000000000|45.00||UN|3.0000|15.0000000000|||||1|
M|
N|
N10d|0|102|
Q|
Q04|07|
S|
S04|07|
W|
W02|0.00|0.00|0.00|0.00|99.00|0.00|0.00||0.00|0.00|0.00|0.00|0.00|99.00|
X|0|
X03||||||
X05||
X18||||
X25a||
X25b||
Y|
Y02||99.00||99.00|