NOTA FISCAL|1|
A|2.00|NFe35140704615918000104550010000000021000000033|
B|35|00000003|Revenda de Mercadorias|0|55|1|2|2014-07-03|2014-07-03|11:32:00|1|3522604|1|1||2|1|3|2.00|||
C|Leao E Leao de Itapira Ltda ME|Mindware|374053100113||||1|
C02|04615918000104|
C05|Rua Duque de Caxias|128||Santa Cruz|3522604|Itapira|SP|13972185|1058|BRASIL|01938432926|
E|Gata|ISENTO||jade_miau@hotmail.com|
E03|38233644218|
E05|Rua Viriato Correia|10||Jardim Isaura|3522604|Itapira|SP|13972185|1058|BRASIL|11111111111|
H|1||
I|4||HD C/ DADOS FISCAL|84717012||5102|Unidad|1.0000|232.0000000000|232.00||Unidad|1.0000|232.0000000000|||||1|
M|
N|
N10d|4|102|
Q|
Q04|07|
S|
S04|07|
W|
W02|0.00|0.00|0.00|0.00|232.00|0.00|0.00||0.00|0.00|0.00|0.00|0.00|232.00|
X|9|
Y|
Y02||232.00||232.00|
Z|o que é fisco?|Teste contribuinte|