NOTA FISCAL|1|
A|2.00|NFe35130904615918000104550010000001761000009248|
B|35|00000924|Remessa de Locação|0|55|1|176|2013-09-17|2013-09-17|11:48:00|1|3522604|1|1||2|1|3|2.00|||
C|Leao E Leao de Itapira Ltda ME|MindWare|374053100113||||1|
C02|04615918000104|
C05|Rua Duque de Caxias|128||Centro|3522604|Itapira|SP|13970520|1058|BRASIL|01938432926|
E|Consumidor|ISENTO|||
E03||
E05||0|||0||||1058|BRASIL||
H|1||
I|7914700001||BATA TERGAL BRANCA ROUPA UTIL|39262000||||3.0000|16.0000000000|48.00|||3.0000|16.0000000000|||||1|
M|
N|
N10c|0|101|0.00|0.00|
Q|
Q05||0.00|
S|
S05||0.00|
W|
W02|0.00|0.00|0.00|0.00|48.00|0.00|0.00||0.00|0.00|0.00|0.00|0.00|48.00|
X|0|
X03||||||
X05||
X18||||
X25a||
X25b||
Y|
Y02||48.00||48.00|