NOTA FISCAL|1|
A|2.00|NFe35131004615918000104550010000001801000009445|
B|35|00000944|Devolução|0|55|1|180|2013-10-29|2013-10-29|14:29:00|1|3522604|1|1||2|1|3|2.00|||
C|Leao E Leao de Itapira Ltda ME|MindWare|374053100113||||1|
C02|04615918000104|
C05|Rua Duque de Caxias|128||Centro|3522604|Itapira|SP|13970520|1058|BRASIL|01938432926|
E|ABEL NISA NETO|ISENTO|||
E03|08204816880|
E05|RUA DAS CAMELIAS |36|APT 41 BLOCO A|SANTA MARTA|3522604|Itapira|SP|13970000|1058|BRASIL|1938434491|
H|1||
I|4931||caneta do bátima|85285120||5102|pc|1.0000|15.0000000000|15.00||pc|1.0000|15.0000000000|||||1|
M|
N|
N10g|0|500|st_base_calculo_modalidade|0.00|0.00|
Q|
Q04|07|
S|
S04|07|
W|
W02|0.00|0.00|0.00|0.00|15.00|0.00|0.00||0.00|0.00|0.00|0.00|0.00|15.00|
X|0|
X03||||||
X05||
X18||||
X25a||
X25b||
Y|
Y02||15.00||15.00|