NOTA FISCAL|1|
A|2.00|NFe35140104615918000104550010000001821000011102|
B|35|00001110|Devolução|0|55|1|182|2014-01-03|2014-01-03|10:05:00|1|3522604|1|1||2|1|3|2.00|||
C|Leao E Leao de Itapira Ltda ME|MindWare|374053100113||||1|
C02|04615918000104|
C05|Rua Duque de Caxias|128||Centro|3522604|Itapira|SP|13970520|1058|BRASIL|01938432926|
E|QUIMICA AMPARO LTDA|1680008921114||atendimento.cliente@ype.ind.br|
E02|43461789000190|
E05|AV WALDYR BEIRA 1000|0||FIGUEIRA|3501905|Amparo|SP|13904906|1058|BRASIL|1938430000|
G|AV WALDYR BEIRA 1000|0||FIGUEIRA|3501905|Amparo|SP|
G02|43461789000190|
H|1||
I|30001||JANELA VENEZIANA DE CORRER MULTFLEX MED 120 X 150 X 16 6 FOLHAS|38089400||5102|UN|2.0000|625.0000000000|1250.00||UN|2.0000|625.0000000000|||||1|
M|
N|
N10d|0|102|
Q|
Q04|07|
S|
S04|07|
H|2||
I|40001||JANELA VENEZIANA DE CORRER MULTFLEX MED 120 X 200 X 16 6 FOLHAS|48030090||5102|UN|1.0000|723.0000000000|723.00||UN|1.0000|723.0000000000|||||1|
M|
N|
N10d|0|102|
Q|
Q04|07|
S|
S04|07|
W|
W02|0.00|0.00|0.00|0.00|0.00|0.00|0.00||0.00|0.00|0.00|0.00|0.00|1973.00|
X|0|
X03||||||
X05||
X18||||
X25a||
X25b||
Y|
Y02||1973.00||1973.00|