NOTA FISCAL|1|
A|2.00|NFe35140304615918000104550010000000741000022880|
B|35|00002288|Revenda de Mercadorias|1|55|1|74|2014-03-06|2014-03-06|16:44:00|1|3522604|1|1||1|1|3|2.00|||
C|Leao E Leao de Itapira Ltda ME|MindWare|374053100113||||1|
C02|04615918000104|
C05|Rua Duque de Caxias|128||Santa Cruz|3522604|Itapira|SP|13974345|1058|BRASIL|01938432926|
E|IBILUX INDUSTRIA DE MATERIAIS ELETRICOS LTDA - EPP |374127860110|||
E02|09111318000114|
E05|Av. Anesio Bazani|150|Distrito Industrial|Parque Progresso|3522604|Itapira|SP|13973532|1058|BRASIL|1938138800|
H|1||
I|170000013||Placa Mae Asrock N68S3-FX AM3+ s/v/r DDR3 Micro ATX|84733041||5102|Unidad|1.0000|192.5000000000|192.50||Unidad|1.0000|192.5000000000|||19.25||1|
M|
N|
N10d|4|102|
Q|
Q04|07|
S|
S04|07|
H|2||
I|160000012||PROCESSADOR AMD SEMPRON 145 2,8GHz 1MB AM3|85423190||5102|Unidad|1.0000|107.5000000000|107.50||Unidad|1.0000|107.5000000000|||10.75||1|
M|
N|
N10d|7|102|
Q|
Q04|07|
S|
S04|07|
H|3||
I|090220017||FONTE WISECASE 500-P42S 220W 20+4 CABO E EMB|85044021||5102|Unidad|1.0000|50.0000000000|50.00||Unidad|1.0000|50.0000000000|||5.00||1|
M|
N|
N10d|2|102|
Q|
Q04|07|
S|
S04|07|
H|4||
I|090220016||FONTE WISECASE ATX 220W 20+4 SATA|85044090||5102|Unidad|1.0000|50.0000000000|50.00||Unidad|1.0000|50.0000000000|||5.00||1|
M|
N|
N10d|2|102|
Q|
Q04|07|
S|
S04|07|
W|
W02|0.00|0.00|0.00|0.00|400.00|0.00|0.00|40.00|0.00|0.00|0.00|0.00|0.00|360.00|
X|9|
Y|
Y02||400.00|40.00|360.00|