NOTAFISCAL|1|
A|3.10|NFe35150404615918000104550010000001521000027835|
B|35|00002783|Revenda de Mercadorias|0|55|1|152|2015-04-13T16:36:16-03:00|2015-04-13T16:36:00-03:00|1|1|3522604|1|1|5|1|1|0|1|3|3.10|||
C|Leao E Leao de Itapira Ltda ME|MindWare|374053100113||||1|
C02|04615918000104|
C05|Rua Duque de Caxias|128||Santa Cruz|3522604|Itapira|SP|13974345|1058|BRASIL|01938432926|
E|JINGFENG TAN LANCHONETE - ME|1|748177797112|||tanlanchonete@gmail.com|
E02|21880457000108|
E05|Rua Luiz Camilo de Camargo|540||Loteamento Remanso Campineiro|3519071|Hortolandia|SP|13184420|1058|BRASIL|19982548768|
W|
W02|0.00|0.00|0.00|0.00|0.00|3557.72|0.00|0.00|257.72|0.00|0.00|0.00|0.00|0.00|3300.00|1291.65|
X|9|
Y|
Y02|152|3557.72|257.72|3300.00|
Y07|152/1|2015-04-13|1,000.00|
Y07|152/2|2015-04-13|2,300.00|