NOTA FISCAL|1|
A|2.00|NFe35140104615918000104550010000000681000021910|
B|35|00002191|Revenda de Mercadorias|1|55|1|68|2014-01-20|2014-01-20|16:29:00|1|3522604|1|1||1|1|3|2.00|||
C|Leao E Leao de Itapira Ltda ME|MindWare|374053100113||||1|
C02|04615918000104|
C05|Rua Duque de Caxias|128||Santa Cruz|3522604|Itapira|SP|13974345|1058|BRASIL|01938432926|
E|MARQUES E PAGANINI LTDA|374018332118||julio.paganini@terra.com.br|
E02|53740197000161|
E05|AVENIDA COMENDADOR VIRGULINO DE OLIVEIRA|165||VILA IZAURA|3522604|Itapira|SP|13972170|1058|BRASIL|1938631280|
H|1||
I|000000138||SWITCH HPN 1410-24-2G / SWITCH 24 POR TS 10/100 J9664A|85176239||5102|Unidad|1.0000|564.0000000000|564.00||Unidad|1.0000|564.0000000000|||||1|
M|
N|
N10d|2|102|
Q|
Q04|07|
S|
S04|07|
W|
W02|0.00|0.00|0.00|0.00|564.00|0.00|0.00||0.00|0.00|0.00|0.00|0.00|564.00|
X|9|
Y|
Y02||564.00||564.00|
Y07|68/1|2014-01-22|282.00|
Y07|68/2|2014-02-22|282.00|