NOTA FISCAL|1|
A|2.00|NFe35140604615918000104550010000000951000024345|
B|35|00002434|Revenda de Mercadorias|1|55|1|95|2014-06-16|2014-06-16|11:17:00|1|3522604|1|1||1|1|3|2.00|||
C|Leao E Leao de Itapira Ltda ME|MindWare|374053100113||||1|
C02|04615918000104|
C05|Rua Duque de Caxias|128||Santa Cruz|3522604|Itapira|SP|13974345|1058|BRASIL|01938432926|
E|CHARLES GOMES DE ALMEIDA - ME|374112170118||charlesmoveis@hotmail.com|
E02|04756661000100|
E05|RUA ALMIRANTE BARROSO|400|Casa|JARDIM MAGALI|3522604|Itapira|SP|13972030|1058|BRASIL|1938437940|
H|1||
I|070000009||DISCO RÍGIDO WESTERN DIGITAL SATA P/NOTEBOOK 500GB 5400RPM|84717012||5102|Unidad|1.0000|231.0000000000|231.00||Unidad|1.0000|231.0000000000|||||1|
M|
N|
N10d|4|102|
Q|
Q04|07|
S|
S04|07|
W|
W02|0.00|0.00|0.00|0.00|231.00|0.00|0.00||0.00|0.00|0.00|0.00|0.00|231.00|
X|9|
Y|
Y02||231.00||231.00|