NOTA FISCAL|1|
A|2.00|NFe35140904615918000104550010000001181000025152|
B|35|00002515|Revenda de Mercadorias|0|55|1|118|2014-09-09|2014-09-09|11:38:00|1|3522604|1|1||1|1|3|2.00|||
C|Leao E Leao de Itapira Ltda ME|MindWare|374053100113||||1|
C02|04615918000104|
C05|Rua Duque de Caxias|128||Santa Cruz|3522604|Itapira|SP|13974345|1058|BRASIL|01938432926|
E|CR CENTRO DE COBRANCA E PREST. DE SERV. S/S LTDA|ISENTO||netokala@gmail.com|
E02|03077547000183|
E05|PRACA BERNARDINO DE CAMPOS|131||CENTRO|3522604|Itapira|SP|13970005|1058|BRASIL|1938139595|
H|1||
I|240460007||CARTUCHO DE TONER HP Q2612A COMPATÍVEL|84439933||5102|Unidad|1.0000|70.0000000000|70.00||Unidad|1.0000|70.0000000000|||||1|
M|
N|
N10d|0|102|
Q|
Q04|07|
S|
S04|07|
W|
W02|0.00|0.00|0.00|0.00|70.00|0.00|0.00||0.00|0.00|0.00|0.00|0.00|70.00|
X|9|
Y|
Y02||70.00||70.00|