NOTA FISCAL|1|
A|2.00|NFe35131104615918000104550010000000631000020756|
B|35|00002075|Revenda de Mercadorias|1|55|1|63|2013-11-07|2013-11-07|16:57:00|1|3522604|1|1||1|1|3|2.00|||
C|Leao E Leao de Itapira Ltda ME|MindWare|374053100113||||1|
C02|04615918000104|
C05|Rua Duque de Caxias|128||Santa Cruz|3522604|Itapira|SP|13974345|1058|BRASIL|01938432926|
E|LUANA LEAO|ISENTO|||
E03|39223482895|
E05|Ladeira Sao Joao|128||Centro|3522604|Itapira|SP|13970330|1058|BRASIL|1938435995|
H|1||
I|000000119||ADAPTADOR WIRELESS TP-LINK TL-WN721N USB 150MBPS|84733049||5102|Unidad|1.0000|50.5300000000|50.53||Unidad|1.0000|50.5300000000|||||1|
M|
N|
N10d|2|102|
Q|
Q04|07|
S|
S04|07|
W|
W02|0.00|0.00|0.00|0.00|50.53|0.00|0.00||0.00|0.00|0.00|0.00|0.00|50.53|
X|9|
Y|
Y02||50.53||50.53|