NOTA FISCAL|1|
A|2.00|NFe35141204615918000104550010000001381000026493|
B|35|00002649|Revenda de Mercadorias|1|55|1|138|2014-12-16|2014-12-16|14:14:00|1|3522604|1|1||1|1|3|2.00|||
C|Leao E Leao de Itapira Ltda ME|MindWare|374053100113||||1|
C02|04615918000104|
C05|Rua Duque de Caxias|128||Santa Cruz|3522604|Itapira|SP|13974345|1058|BRASIL|01938432926|
E|IBILUX INDUSTRIA DE MATERIAIS ELETRICOS LTDA - EPP |374127860110|||
E02|09111318000114|
E05|Av. Anesio Bazani|150|Distrito Industrial|Parque Progresso|3522604|Itapira|SP|13973532|1058|BRASIL|1938138800|
H|1||
I|240460006||CARTUCHO DE TONER HP P1102 / CE285A COMPATÍVEL|84439933||5102|Unidad|1.0000|70.0000000000|70.00||Unidad|1.0000|70.0000000000|||||1|
M|
N|
N10d|0|102|
Q|
Q04|07|
S|
S04|07|
W|
W02|0.00|0.00|0.00|0.00|70.00|0.00|0.00||0.00|0.00|0.00|0.00|0.00|70.00|
X|9|
Y|
Y02||70.00||70.00|