NOTA FISCAL|1|
A|2.00|NFe35140904615918000104550010000001241000025397|
B|35|00002539|Revenda de Mercadorias|1|55|1|124|2014-09-30|2014-09-30|07:36:00|1|3522604|1|1||1|1|3|2.00|||
C|Leao E Leao de Itapira Ltda ME|MindWare|374053100113||||1|
C02|04615918000104|
C05|Rua Duque de Caxias|128||Santa Cruz|3522604|Itapira|SP|13974345|1058|BRASIL|01938432926|
E|PAULO ALVES FRANCO|ISENTO||paulof26@uol.com.br|
E03|06015891815|
E05|Rua Fioravante Miquilini|23||Parque Santa Barbara|3522604|Itapira|SP|13977160|1058|BRASIL|1938435068|
H|1||
I|160000018||PROCESSADOR AMD A4 4000 3.2GHZ 1MB FM2 - AD4000OKHLBOX|85423190||5102|Unidad|1.0000|100.6400000000|100.64||Unidad|1.0000|100.6400000000|||||1|
M|
N|
N10d|7|102|
Q|
Q04|07|
S|
S04|07|
H|2||
I|170000027||PLACA MÃE ASROCK FM2A55M-HD+FM2 S/V/R MICRO ATX|84733041||5102|Unidad|1.0000|211.5800000000|211.58||Unidad|1.0000|211.5800000000|||||1|
M|
N|
N10d|4|102|
Q|
Q04|07|
S|
S04|07|
H|3||
I|070000007||DISCO RÍGIDO WESTERN DIGITAL SATA 500GB 7200RPM WD5000AAKXM|84717012||5102|Unidad|1.0000|268.3700000000|268.37||Unidad|1.0000|268.3700000000|||||1|
M|
N|
N10d|4|102|
Q|
Q04|07|
S|
S04|07|
H|4||
I|100000016||MEMÓRIA PATRIOT DDR3 4GB PC3-10600/1333 MHz|84733042||5102|Unidad|1.0000|190.5200000000|190.52||Unidad|1.0000|190.5200000000|||||1|
M|
N|
N10d|0|102|
Q|
Q04|07|
S|
S04|07|
H|5||
I|000000022||LEITOR E GRAVADOR DVD SATA|84717029||5102|Unidad|1.0000|75.6300000000|75.63||Unidad|1.0000|75.6300000000|||||1|
M|
N|
N10d|6|102|
Q|
Q04|07|
S|
S04|07|
H|6||
I|190000014||GABINETE KMEX CM-3E22 2B/200W REAL PRETO|84733011||5102|Unidad|1.0000|123.3000000000|123.30||Unidad|1.0000|123.3000000000|||||1|
M|
N|
N10d|2|102|
Q|
Q04|07|
S|
S04|07|
W|
W02|0.00|0.00|0.00|0.00|970.04|0.00|0.00||0.00|0.00|0.00|0.00|0.00|970.04|
X|9|
Y|
Y02||970.04||970.04|