NOTA FISCAL|1|
A|2.00|NFe35131004615918000104550010000000611000020510|
B|35|00002051|Revenda de Mercadorias|1|55|1|61|2013-10-23|2013-10-29|09:39:00|1|3522604|1|1||1|1|3|2.00|||
C|Leao E Leao de Itapira Ltda ME|MindWare|374053100113||||1|
C02|04615918000104|
C05|Rua Duque de Caxias|128||Santa Cruz|3522604|Itapira|SP|13974345|1058|BRASIL|01938432926|
E|IVETE DA SILVA AYUSSO ACADEMIA - ME|ISENTO||ivete.academia@gmail.com|
E02|09192987000168|
E05|AVENIDA SIQUEIRA CAMPOS|85|A|SANTA CRUZ|3522604|Itapira|SP|13974065|1058|BRASIL|1938132246|
H|1||
I|000000119||ADAPTADOR WIRELESS TP-LINK TL-WN721N USB 150MBPS|84733049||5102|Unidad|1.0000|51.0000000000|51.00||Unidad|1.0000|51.0000000000|||||1|
M|
N|
N10d|2|102|
Q|
Q04|07|
S|
S04|07|
W|
W02|0.00|0.00|0.00|0.00|51.00|0.00|0.00||0.00|0.00|0.00|0.00|0.00|51.00|
X|9|
Y|
Y02||51.00||51.00|
Y07|61/1|2013-11-23|51.00|