NOTA FISCAL|1|
A|2.00|NFe35140304615918000104550010000000731000022794|
B|35|00002279|Revenda de Mercadorias|1|55|1|73|2014-03-05|2014-03-05|14:01:00|1|3522604|1|1||1|1|3|2.00|||
C|Leao E Leao de Itapira Ltda ME|MindWare|374053100113||||1|
C02|04615918000104|
C05|Rua Duque de Caxias|128||Santa Cruz|3522604|Itapira|SP|13974345|1058|BRASIL|01938432926|
E|MARQUES E PAGANINI LTDA|374018332118||julio.paganini@terra.com.br|
E02|53740197000161|
E05|AVENIDA COMENDADOR VIRGULINO DE OLIVEIRA|165||VILA IZAURA|3522604|Itapira|SP|13972170|1058|BRASIL|1938631280|
H|1||
I|090220014||FONTE BLUECASE BLU250ATX - 250W PRATA 20 + 4 SATA|85044029||5102|Unidad|1.0000|50.0000000000|50.00||Unidad|1.0000|50.0000000000|||||1|
M|
N|
N10d|2|102|
Q|
Q04|07|
S|
S04|07|
H|2||
I|170000019||Placa Mae Asus P8H61-M LEBR LGA 1155 s/r MicroATX|84733041||5102|Unidad|1.0000|229.3300000000|229.33||Unidad|1.0000|229.3300000000|||||1|
M|
N|
N10d|0|102|
Q|
Q04|07|
S|
S04|07|
H|3||
I|160000013||PROCESSADOR INTEL CORE I3 3240 3.4GHZ 3 MB LGA1155|85423190||5102|Unidad|1.0000|497.0400000000|497.04||Unidad|1.0000|497.0400000000|||||1|
M|
N|
N10d|7|102|
Q|
Q04|07|
S|
S04|07|
H|4||
I|100000020||Memória KINGSTON DDR3 4GB PC10600/1333 MHz|84733042||5102|Unidad|1.0000|242.1000000000|242.10||Unidad|1.0000|242.1000000000|||||1|
M|
N|
N10d|2|102|
Q|
Q04|07|
S|
S04|07|
H|5||
I|070000007||DISCO RÍGIDO WESTERN DIGITAL SATA 500GB 7200RPM WD5000AAKXM|84717012||5102|Unidad|1.0000|259.7000000000|259.70||Unidad|1.0000|259.7000000000|||||1|
M|
N|
N10d|4|102|
Q|
Q04|07|
S|
S04|07|
H|6||
I|090220008||FONTE WISECASE ATX WSCW-500 220W 20+4P SATA|85044090||5102|Unidad|1.0000|50.0000000000|50.00||Unidad|1.0000|50.0000000000|||||1|
M|
N|
N10d|0|102|
Q|
Q04|07|
S|
S04|07|
W|
W02|0.00|0.00|0.00|0.00|1328.17|0.00|0.00||0.00|0.00|0.00|0.00|0.00|1328.17|
X|9|
Y|
Y02||1328.17||1328.17|