NOTA FISCAL|1|
A|2.00|NFe35130704615918000104550010000000471000019320|
B|35|00001932|Revenda de Mercadorias|1|55|1|47|2013-07-31|2013-07-31|15:54:00|1|3522604|1|1||1|1|3|2.00|||
C|Leao E Leao de Itapira Ltda ME|MindWare|374053100113||||1|
C02|04615918000104|
C05|Rua Duque de Caxias|128||Santa Cruz|3522604|Itapira|SP|13974345|1058|BRASIL|01938432926|
E|MODELO MOVEIS DE ITAPIRA LTDA|374122255110|||
E02|08340670000169|
E05|RUA HERMES OSORIO DE OLIVEIRA|298||PENHA RIO DO PEIXE|3522604|Itapira|SP|13971035|1058|BRASIL|1938432474|
H|1||
I|090220013||FONTE BLUECASE ATX MPV-230 230W CINZA 20+4 SATA|85044029||5102|Unidad|1.0000|42.1100000000|42.11||Unidad|1.0000|42.1100000000|||||1|
M|
N|
N10d|2|102|
Q|
Q04|07|
S|
S04|07|
W|
W02|0.00|0.00|0.00|0.00|42.11|0.00|0.00|0.00|0.00|0.00|0.00|0.00|0.00|42.11|
X|9|
Y|
Y02||42.11||42.11|