NOTA FISCAL|1|
A|2.00|NFe35140204615918000104550010000000691000022160|
B|35|00002216|Revenda de Mercadorias|1|55|1|69|2014-02-04|2014-02-04|16:38:00|1|3522604|1|1||1|1|3|2.00|||
C|Leao E Leao de Itapira Ltda ME|MindWare|374053100113||||1|
C02|04615918000104|
C05|Rua Duque de Caxias|128||Santa Cruz|3522604|Itapira|SP|13974345|1058|BRASIL|01938432926|
E|RODRIGO BUENO DE CARVALHO|ISENTO||rodrigo@gazetaitapirense.com.br|
E03|35219315870|
E05|RUA DE XV DE NOVEMBRO|591||CENTRO|3522604|Itapira|SP|13970270|1058|BRASIL||
H|1||
I|160000013||PROCESSADOR INTEL CORE I3 3240 3.4GHZ 3 MB LGA1155|85423190||5102|Unidad|1.0000|483.1600000000|483.16||Unidad|1.0000|483.1600000000|||||1|
M|
N|
N10d|7|102|
Q|
Q04|07|
S|
S04|07|
H|2||
I|170000019||Placa Mae Asus P8H61-M LEBR LGA 1155 s/r MicroATX|84733041||5102|Unidad|1.0000|225.0900000000|225.09||Unidad|1.0000|225.0900000000|||||1|
M|
N|
N10d|0|102|
Q|
Q04|07|
S|
S04|07|
H|3||
I|100000020||Memória DDR3 4GB PC10600/1333 MHz|84733042||5102|Unidad|1.0000|235.4900000000|235.49||Unidad|1.0000|235.4900000000|||||1|
M|
N|
N10d|2|102|
Q|
Q04|07|
S|
S04|07|
H|4||
I|070000007||DISCO RÍGIDO  SATA 500GB 7200RPM |84717012||5102|Unidad|1.0000|257.5500000000|257.55||Unidad|1.0000|257.5500000000|||||1|
M|
N|
N10d|4|102|
Q|
Q04|07|
S|
S04|07|
H|5||
I|000000022||LEITOR E GRAVADOR DVD SATA|84717029||5102|Unidad|1.0000|93.1500000000|93.15||Unidad|1.0000|93.1500000000|||||1|
M|
N|
N10d|6|102|
Q|
Q04|07|
S|
S04|07|
H|6||
I|190000010||GABINETE  CX2167 4B 200W REAL PRETO|84733011||5102|Unidad|1.0000|117.6600000000|117.66||Unidad|1.0000|117.6600000000|||||1|
M|
N|
N10d|0|102|
Q|
Q04|07|
S|
S04|07|
W|
W02|0.00|0.00|0.00|0.00|1412.10|0.00|0.00||0.00|0.00|0.00|0.00|0.00|1412.10|
X|9|
Y|
Y02||1412.10||1412.10|