NOTA FISCAL|1|
A|2.00|NFe35141011016428000149550010000002361000044170|
B|35|00004417|Revenda de Mercadorias|1|55|1|236|2014-10-08|2014-10-08|16:17:25|1|3556503|1|1||1|1|3|2.00|||
C|Odinael da Silva Gomes ME|D E J.Gomes|712117377118||||1|
C02|11016428000149|
C05|Rua: Agapantos|150||Jardim Bertioga|3556503|Varzea Paulista|SP|13225270|1058|BRASIL|01145962859|
E|Mercado Tamoio|ISENTO|||
E03||
E05|Jardim Tamoio|0||Jardim Tamoio|3525904|Jundiai|SP||1058|BRASIL||
H|1||
I|7||Amendoim Descascado 1x500g|12024200||5102|Pacote|5.0000|5.3500000000|26.75||Pacote|5.0000|5.3500000000|||0.18||1|
M|8.41|
N|
N10d|0|102|
Q|
Q04|07|
S|
S04|07|
H|2||
I|8||Milho para Pipoca Nascional 1x500g|10059090||5102|Pacote|10.0000|1.6000000000|16.00||Pacote|10.0000|1.6000000000|||0.18||1|
M|3.22|
N|
N10d|0|102|
Q|
Q04|07|
S|
S04|07|
H|3||
I|22||Canjica Branca 1x500g|11031300||5102|Pacote|10.0000|2.1500000000|21.50||Pacote|10.0000|2.1500000000|||0.18||1|
M|4.32|
N|
N10d|0|102|
Q|
Q04|07|
S|
S04|07|
H|4||
I|42||Canjica Amarela 1X500g|11031300||5102|Pacote|10.0000|1.2500000000|12.50||Pacote|10.0000|1.2500000000|||0.18||1|
M|2.51|
N|
N10d|0|102|
Q|
Q04|07|
S|
S04|07|
H|5||
I|47||Polvilho Azedo 1x500g|11081900||5102|Pacote|10.0000|3.2000000000|32.00||Pacote|10.0000|3.2000000000|||0.18||1|
M|10.06|
N|
N10d|0|102|
Q|
Q04|07|
S|
S04|07|
H|6||
I|90||Tempero Completo S/ Pimenta 1x250g|21039021||5102|Pote|6.0000|2.9900000000|17.94||Pote|6.0000|2.9900000000|||0.18||1|
M|5.64|
N|
N10d|0|102|
Q|
Q04|07|
S|
S04|07|
H|7||
I|336||Alho Triturado 24x200g|07032090||5102|Pote|12.0000|1.9900000000|23.88||Pote|12.0000|1.9900000000|||0.18||1|
M|4.80|
N|
N10d|0|102|
Q|
Q04|07|
S|
S04|07|
H|8||
I|137||Arroz Mesa Fina 6x5kg|10064000||5405|Fardo|2.0000|58.0000000000|116.00||Fardo|2.0000|58.0000000000|||0.18||1|
M|13.31|
N|
N10d|0|102|
Q|
Q04|07|
S|
S04|07|
H|9||
I|136||Arroz Mesa Fina 15x2kg|10064000||5405|Fardo|1.0000|58.0000000000|58.00||Fardo|1.0000|58.0000000000|||0.18||1|
M|6.65|
N|
N10d|0|102|
Q|
Q04|07|
S|
S04|07|
H|10||
I|126||Açucar Cristal Crisneve 15x2kg|17019900||5405|Fardo|1.0000|42.0000000000|42.00||Fardo|1.0000|42.0000000000|||0.18||1|
M|9.57|
N|
N10d|0|102|
Q|
Q04|07|
S|
S04|07|
H|11||
I|400.001||Vinagre de Alcool Colorido 12x750ml|22090000||5405|750 ml|12.0000|1.3500000000|16.20||750 ml|12.0000|1.3500000000|||0.18||1|
M|5.09|
N|
N10d|0|102|
Q|
Q04|07|
S|
S04|07|
H|12||
I|12||Orégano 1x10g|12119010||5102|Pacote|20.0000|0.7900000000|15.80||Pacote|20.0000|0.7900000000|||0.18||1|
M|4.97|
N|
N10d|0|102|
Q|
Q04|07|
S|
S04|07|
H|13||
I|13||Erva Doce 1x20g|09096110||5102|Pacote|10.0000|1.2000000000|12.00||Pacote|10.0000|1.2000000000|||0.18||1|
M|3.77|
N|
N10d|0|102|
Q|
Q04|07|
S|
S04|07|
H|14||
I|17||Canela da China em Casca 1x10g|09061900||5102|Pacote|10.0000|0.9000000000|9.00||Pacote|10.0000|0.9000000000|||0.18||1|
M|2.83|
N|
N10d|0|102|
Q|
Q04|07|
S|
S04|07|
H|15||
I|28||Colorau 1x70g|09109900||5102|Pacote|30.0000|0.9500000000|28.50||Pacote|30.0000|0.9500000000|||0.18||1|
M|8.96|
N|
N10d|0|102|
Q|
Q04|07|
S|
S04|07|
H|16||
I|30||Cominho em Pó 1x30g|09093200||5102|Pacote|10.0000|1.5000000000|15.00||Pacote|10.0000|1.5000000000|||0.18||1|
M|4.72|
N|
N10d|0|102|
Q|
Q04|07|
S|
S04|07|
H|17||
I|31||Bicarbonado de Sódio 1x40g|28363000||5102|Pacote|10.0000|0.7000000000|7.00||Pacote|10.0000|0.7000000000|||0.18||1|
M|2.20|
N|
N10d|0|102|
Q|
Q04|07|
S|
S04|07|
H|18||
I|60||Tempero Tipo Baiano 1x30g|21032090||5102|Pacote|10.0000|1.0000000000|10.00||Pacote|10.0000|1.0000000000|||0.18||1|
M|3.15|
N|
N10d|0|102|
Q|
Q04|07|
S|
S04|07|
H|19||
I|65||Cebola, Alho e Salsa 1x20g|12119090||5102|Pacote|10.0000|1.5900000000|15.90||Pacote|10.0000|1.5900000000|||0.18||1|
M|5.00|
N|
N10d|0|102|
Q|
Q04|07|
S|
S04|07|
H|20||
I|74||Pimenta com Cominho 1x40g|09041200||5102|Pacote|10.0000|1.5000000000|15.00||Pacote|10.0000|1.5000000000|||0.18||1|
M|4.72|
N|
N10d|0|102|
Q|
Q04|07|
S|
S04|07|
H|21||
I|88||Bicarbonato de Amônio 1x40g|28361000||5102|Pacote|10.0000|0.9900000000|9.90||Pacote|10.0000|0.9900000000|||0.18||1|
M|0.00|
N|
N10d|0|102|
Q|
Q04|07|
S|
S04|07|
H|22||
I|93||Manjericão Desidratado 1x10g|12119090||5102|Pote|10.0000|0.7500000000|7.50||Pote|10.0000|0.7500000000|||0.18||1|
M|2.36|
N|
N10d|0|102|
Q|
Q04|07|
S|
S04|07|
H|23||
I|201||Hortelã Desidratada 1x10g|12119090||5102|Pacote|10.0000|0.8500000000|8.50||Pacote|10.0000|0.8500000000|||0.18||1|
M|2.67|
N|
N10d|0|102|
Q|
Q04|07|
S|
S04|07|
H|24||
I|86||Molho de Pimenta 1x150ml|21039021||5405|Pote|6.0000|1.4900000000|8.94||Pote|6.0000|1.4900000000|||0.18||1|
M|2.81|
N|
N10d|0|102|
Q|
Q04|07|
S|
S04|07|
H|25||
I|112||Orégano 1x100g|12119010||5102|Pacote|3.0000|2.5900000000|7.77||Pacote|3.0000|2.5900000000|||0.06||1|
M|2.44|
N|
N10d|0|102|
Q|
Q04|07|
S|
S04|07|
W|
W02|0.00|0.00|0.00|0.00|553.58|0.00|0.00|4.38|0.00|0.00|0.00|0.00|0.00|549.20|124.20|
X|1|
X03||||||
X05||
X18||||
X25a||
X25b||
Y|
Y02||553.58|4.38|549.20|
Z|Documento emitido por ME ou EPP optante pelo Simples Nacional. Não gera crédito de IPI/ICMS.||