NOTA FISCAL|1|
A|2.00|NFe35140704615918000104550010000001061000024638|
B|35|00002463|Revenda de Mercadorias|1|55|1|106|2014-07-25|2014-07-25|14:49:00|1|3522604|1|1||1|1|3|2.00|||
C|Leao E Leao de Itapira Ltda ME|MindWare|374053100113||||1|
C02|04615918000104|
C05|Rua Duque de Caxias|128||Santa Cruz|3522604|Itapira|SP|13974345|1058|BRASIL|01938432926|
E|MEREIDE CRISTINA DO COUTO|ISENTO||mereide@gmail.com|
E03|31323175865|
E05|RUA ARTUR BERNARDES|190||VILA ILZE|3522604|Itapira|SP|13972129|1058|BRASIL|1938638977|
H|1||
I|140520007||MONITOR AOC 19.5 LED E2070SWNL WIDESCREEN|85285120||5102|Unidad|1.0000|392.0000000000|392.00||Unidad|1.0000|392.0000000000|||||1|
M|
N|
N10d|4|102|
Q|
Q04|07|
S|
S04|07|
H|2||
I|200000004||ESTABILIZADOR SMS REVOL. SPEEDY C. 300VA MONO 115-16511NTSA|90328911||5102|Unidad|1.0000|55.0000000000|55.00||Unidad|1.0000|55.0000000000|||||1|
M|
N|
N10d|4|102|
Q|
Q04|07|
S|
S04|07|
W|
W02|0.00|0.00|0.00|0.00|487.00|0.00|0.00||0.00|0.00|0.00|0.00|0.00|487.00|
X|9|
Y|
Y02||487.00||487.00|