NOTA FISCAL|1|
A|2.00|NFe35150304615918000104550010000001491000027585|
B|35|00002758|Revenda de Mercadorias|1|55|1|149|2015-03-18|2015-03-18|10:28:00|1|3522604|1|1||1|1|3|2.00|||
C|Leao E Leao de Itapira Ltda ME|MindWare|374053100113||||1|
C02|04615918000104|
C05|Rua Duque de Caxias|128||Santa Cruz|3522604|Itapira|SP|13974345|1058|BRASIL|01938432926|
E|LUIZ CARLOS SORIANI - ME|374113051113||aguadecheiro@superig.com.br|
E02|05851013000198|
E05|RUA JOSE BONIFACIO |92||CENTRO|3522604|Itapira|SP|13970190|1058|BRASIL|1938435006|
H|1||
I|090220017||FONTE WISECASE 500-P42S 220W 20+4 CABO E EMB|85044021||5102|Unidad|1.0000|50.0000000000|50.00||Unidad|1.0000|50.0000000000|||||1|
M|0.00|
N|
N10d|8|102|
Q|
Q04|07|
S|
S04|07|
W|
W02|0.00|0.00|0.00|0.00|50.00|0.00|0.00||0.00|0.00|0.00|0.00|0.00|50.00|0.00|
X|9|
Y|
Y02||50.00||50.00|